<?xml version="1.0" encoding="utf-8"?>
<!-- Generator: Adobe Illustrator 26.0.2, SVG Export Plug-In . SVG Version: 6.00 Build 0)  -->
<svg version="1.1" id="Laag_1" xmlns="http://www.w3.org/2000/svg" xmlns:xlink="http://www.w3.org/1999/xlink" x="0px" y="0px"
	 viewBox="0 0 10 12" style="enable-background:new 0 0 10 12;" xml:space="preserve">
<style type="text/css">
	.st0{enable-background:new    ;}
	.st1{fill:#0091DD;}
</style>
<g class="st0">
	<path class="st1" d="M8.7,3.4l-2,2v5.5c0,0.2-0.1,0.4-0.2,0.5c-0.1,0.1-0.3,0.2-0.5,0.2c-0.2,0-0.4-0.1-0.5-0.2
		c-0.1-0.1-0.2-0.3-0.2-0.5V8.3H4.8v2.6c0,0.2-0.1,0.4-0.2,0.5c-0.1,0.1-0.3,0.2-0.5,0.2c-0.2,0-0.4-0.1-0.5-0.2
		c-0.1-0.1-0.2-0.3-0.2-0.5V5.3l-2-2C1.2,3.3,1.1,3.1,1.1,2.9s0.1-0.3,0.2-0.5c0.1-0.1,0.3-0.2,0.5-0.2s0.3,0.1,0.5,0.2L3.8,4h2.5
		l1.5-1.5C7.9,2.3,8,2.3,8.2,2.3s0.3,0.1,0.5,0.2c0.1,0.1,0.2,0.3,0.2,0.5C8.9,3.1,8.8,3.3,8.7,3.4z M6.1,1.2
		c0.3,0.3,0.4,0.6,0.4,1.1c0,0.4-0.1,0.8-0.4,1.1C5.8,3.6,5.4,3.8,5,3.8S4.2,3.6,3.9,3.3C3.6,3.1,3.5,2.7,3.5,2.3
		c0-0.4,0.1-0.8,0.4-1.1C4.2,0.9,4.6,0.8,5,0.8S5.8,0.9,6.1,1.2z"/>
</g>
</svg>
