<svg xmlns="http://www.w3.org/2000/svg" width="779" height="4" viewBox="0 0 779 4">
  <path id="Path_690" data-name="Path 690" d="M881,4686.2h779" transform="translate(-881 -4684.203)" fill="none" stroke="#ffcb00" stroke-width="4" stroke-dasharray="30 20"/>
</svg>
